[gd_scene load_steps=4 format=2]

[ext_resource path="res://CommonRecourses/sounds/happy.wav" type="AudioStream" id=1]
[ext_resource path="res://Scenes/npc/Area2Dnpc.gd" type="Script" id=2]

[sub_resource type="RectangleShape2D" id=1]
extents = Vector2( 92.0596, 31.7437 )

[node name="Wizard" type="Area2D"]
position = Vector2( 467.619, -1879.04 )
script = ExtResource( 2 )
correct_item = "BeardTrimmer"

[node name="Sprite" type="AnimatedSprite" parent="."]
position = Vector2( 0.5, -0.186902 )
scale = Vector2( 0.742769, 0.515723 )

[node name="CollisionShape2D" type="CollisionShape2D" parent="."]
shape = SubResource( 1 )

[node name="Label" type="Label" parent="."]
margin_left = 12.6992
margin_top = -52.5717
margin_right = 89.6992
margin_bottom = -38.5717
custom_colors/font_color = Color( 0.823529, 0.109804, 0.109804, 1 )
text = "no collision"
__meta__ = {
"_edit_use_anchors_": false
}

[node name="HappySoundPlayer" type="AudioStreamPlayer2D" parent="."]
stream = ExtResource( 1 )
volume_db = -60.0

[connection signal="body_entered" from="." to="." method="_on_Area2Dnpc_body_entered"]
[connection signal="body_exited" from="." to="." method="_on_Area2Dnpc_body_exited"]
